[
  {
    "name": "content",
    "label": "List of Column Content",
    "type": "list",
    "min": 1,
    "entity": "content",
    "field": {
      "name": "content",
      "type": "group",
      "fields": [
        {
          "name": "content",
          "type": "library",
          "label": "Content",
          "options": [
            "H5P.Accordion 1.0",
            "H5P.AppearIn 1.0",
            "H5P.Audio 1.2",
            "H5P.Blanks 1.7",
            "H5P.Collage 0.2",
            "H5P.CoursePresentation 1.13",
            "H5P.DocumentationTool 1.3",
            "H5P.DragQuestion 1.7",
            "H5P.DragText 1.5",
            "H5P.Table 1.1",
            "H5P.AdvancedText 1.1",
            "H5P.IFrameEmbed 1.0",
            "H5P.Image 1.0",
            "H5P.ImageHotspots 1.4",
            "H5P.ImageHotspotQuestion 1.3",
            "H5P.InteractiveVideo 1.12",
            "H5P.Link 1.2",
            "H5P.MarkTheWords 1.6",
            "H5P.MemoryGame 1.1",
            "H5P.MultiChoice 1.8",
            "H5P.QuestionSet 1.10",
            "H5P.SingleChoiceSet 1.6",
            "H5P.Summary 1.5",
            "H5P.Timeline 1.1",
            "H5P.TrueFalse 1.0",
            "H5P.TwitterUserFeed 1.0",
            "H5P.Video 1.3"
          ]
        },
        {
          "name": "useSeparator",
          "type": "select",
          "label": "Separate content with a horizontal ruler",
          "default": "auto",
          "options": [
            {
              "value": "auto",
              "label": "Automatic (default)"
            },
            {
              "value": "disabled",
              "label": "Never use ruler above"
            },
            {
              "value": "enabled",
              "label": "Always use ruler above"
            }
          ]
        }
      ]
    }
  }
]
