{
  "title": "Continuous Text",
  "contentType": "Static content",
  "description": "A library that handles splitting up a large text into several div-containers in a Course Presentation.",
  "majorVersion": 1,
  "minorVersion": 2,
  "patchVersion": 7,
  "runnable": 0,
  "machineName": "H5P.ContinuousText",
  "author": "Joubel",
  "preloadedJs": [
    {
      "path": "scripts/ct.js"
    }
  ]
}