{
  "title": "Link",
  "description": "A library for display a single link.",
  "majorVersion": 1,
  "minorVersion": 3,
  "patchVersion": 3,
  "runnable": 0,
  "machineName": "H5P.Link",
  "author": "Joubel",
  "preloadedJs": [
    {
      "path": "link.js"
    }
  ],
  "editorDependencies": [
    {
      "machineName": "H5PEditor.UrlField",
      "majorVersion": 1,
      "minorVersion": 2
    }
  ]
}